50.1757003177899
50.10614788695446
50.11411305894662
50.182972313051344
50.11391586473022
50.11733944059386
50.17111848245879
50.1060094158543
50.17748110138471
50.16309718432722
50.1131287000409
50.18137365410246
50.11903263878746
50.11609706281772
50.172395998550584
50.10421853871281
50.12576743791758
50.160673138537675
