51.95152574552532
51.893799460686665
51.95246004935104
51.952444374219404
51.89489920593149
51.94549338556784
51.96454962965044
51.945358533418315
51.94427932905358
51.94423438036039
51.94556431725472
51.94795837528741
51.89679300075105
51.964337092288794
51.943947370355595
51.90771146156521
51.94188066207619
51.95808885810439
51.890091456691856
51.95068675695309
51.94543276387271
51.94153801344907
51.9406684236907
51.88469666062031
51.95636551439179
51.938525291691285
51.907141545915714
51.945381214923536
51.94547812703262
51.89234582704672
52.18243867892929
52.10661702106869
52.175419357096665
52.174241125037845
52.12038264726009
52.17487599911888
52.12169006460594
52.11774974349004
52.17380304596875
52.11425871242324
52.120018541753225
52.174651336799585
52.11439444294233
52.1117903666646
52.18532576653207
52.11208463001329
52.184896657763666
52.169856505739006
52.11926419111573
52.17834561343837
52.11892667090637
52.11947509157151
52.171829909217095
52.11797433117887
52.13236609285017
52.17231662737625
52.1285541474966
52.18001588611707
52.18528872388676
52.10855078424787
52.183484103192825
52.112047691272316
52.11551933164077
52.17021215659377
52.11164219864824
52.1259100365361
52.19451521562811
52.12043620482768
52.10671287590537
52.17830400362568
52.10773617938702
52.17823576367651
52.195253842314884
52.12065749423898
52.19283693698918
52.11744669847514
52.119612925075096
52.16970093601238
52.12842374214409
52.12659813571357
52.18203708400895
52.10981112733303
52.1274498756675
52.17905590317637
52.124412227451856
52.17590073345771
52.17138979070054
52.13234490922079
52.17087355528751
52.11658449241592
50.11458689026057
50.165252666160505
50.127976827080126
50.109510934522916
52.18864816461041
52.11336216161592
52.185982137631626
52.16831582400522
56.12176183748142
56.20333618594755
56.12423645815748
56.12636258907494
